{"events":[
	{
		"startTime":0,
		"endTime":75,
		"pose":{
			"poseid":5,
			"posename":"Mountain Pose",
			"poseDesc":"I would like to feel good today",
			"sensors":[94,96,103,104,105,106,114,115]
		}
	},
	{
		"startTime":74.9,
		"endTime":148,
		"pose":{
			"poseid":8,
			"posename":"Standing Side Bend",
			"poseDesc":"",
			"sensors":[84,85,93,94,95,151,157,161]
		}
	},
	{
		"startTime":148,
		"endTime":269,
		"pose":{
			"poseid":10,
			"posename":"",
			"poseDesc":"",
			"sensors":[]
			}
	},
	{
		"startTime":269,
		"endTime":403,
		"pose":{
			"poseid":12,
			"posename":"",
			"poseDesc":"",
			"sensors":[]
		}
	},
	{
		"startTime":403,
		"endTime":565.9,
		"pose":{
			"poseid":13,
			"posename":"",
			"poseDesc":"",
			"sensors":[]
		}
	},
	{
		"startTime":565.9,
		"endTime":1996,
		"pose":{
			"poseid":7,
			"posename":"",
			"poseDesc":"",
			"sensors":[61,67,77,207,212,227]
		}
	}
]
}